GROUP,DESCRIPTION,CHARACTERS_HEX_RANGE,VERSION,REMOVED
EXTENDED,Additional non-ascii characters (what they mean depends on th extended charset used),80..FF,0,-
ANY,Any Extended ASCII character,00..FF,0,-
WHITESPACE,ASCII whitespace characters,09|0A..0D|20,0,-
CONTROL,ASCII control characters (non printable),00..1F|7F,0,-
ALPHA_UPPER,Uppercase alphabetic characters,41..5A,0,-
ALPHA_LOWER,Lowercase alphabetic characters,61..7A,0,-
ALPHA,Alphabetic characters,41..5A|61..7A,0,-
NUMERIC,Numeric characters,30..39,0,-
ALPHA_NUMERIC_UPPER,Uppercase alphabetic and numeric characters,41..5A|30..39,0,-
ALPHA_NUMERIC_LOWER,Lowercase alphabetic and numeric characters,61..7A|30..39,0,-
ALPHA_NUMERIC,Alphabetic and numeric characters,41..5A|61..7A|30..39,0,-
OCTAL,Octal numeric characters,30..37,0,-
BINARY,Binary numeric characters,30..31,0,-
DOMAIN_PIECE,"Characters part of a valid domain segment (tld, subdomain, etc)",41..5A|61..7A|30..39|2D,0,-
SYMBOL,"Punctuation and symbol characters (part of Unicode Sc, Po, Sk, Pc, Pe, Po, Pd, Sm)",21..2F|3A..40|5B..60|7B..7E,0,-
HTML_NAMED,Characters with dedicated named HTML escape code,21..2C|2E..2F|3A..40|5B..60|7B..7E,0,-
QUOTE,ASCII symbols used to quote text in common programming languages,27|22|60,0,-
BRACKET,Opening and closing punctuation with less than and greater than for XML tags,28..29|3C|3E|7B|7D|5B|5D,0,-
SENTENCE_PUNCTUATION,Common punctuation marks for English sentences,2C..2E|22|3F|3A..3B|27..29,0,-
SAFE_PUNCTUATION,"Punctuation marks which generally don't cause issues in documents (Markdown, HTML, etc)",2C|2E,0,-
HEX_UPPER,"Uppercase hex characters",41..46|30..39,0,-
HEX_LOWER,"Lowercase hex characters",61..66|30..39,0,-
HEX,"Hex characters",41..46|61..66|30..39,0,-
PRINTABLE,"Printable Hex Characters",09|0A..0D|20..7E,0,-
TEXT,"Characters that commonly appear in text",09|0A..0D|20|2C..2E|22|3F|3A..3B|27..29|41..5A|61..7A|30..39,0,-
MATH,"Common characters in math equations",09|0A..0D|20..21|25|28..3E|5E|41..5A|61..7A,0,-
URL_UNENCODED_CHARS,URL non-encoded characters,61..7A|41..5A|30..39|2B|2D..2E,0,-
URL_UNENCODED_HASH_CHARS,URL non-encoded characters for hashes,61..7A|41..5A|30..39|2B|2D..2E|3F|3D|2F|26,0,-