NAME,SEX,COMPLEXITY,VERSION,REMOVED
Mr.,MALE,BASIC,0,-
Dr.,MALE,BASIC,0,-
"Ms.",FEMALE,BASIC,0,-
"Mrs.",FEMALE,BASIC,0,-
"Miss",FEMALE,BASIC,0,-
"Dr.",FEMALE,BASIC,0,-
"Herr",MALE,INTERMEDIATE,0,-
"hr.",MALE,INTERMEDIATE,0,-
"Sr.",MALE,INTERMEDIATE,0,-
"Frau",FEMALE,INTERMEDIATE,0,-
"fr.",FEMALE,INTERMEDIATE,0,-
"Sra.",FEMALE,INTERMEDIATE,0,-
"Sta.",FEMALE,INTERMEDIATE,0,-
"Prof. Dr.",MALE,ADVANCED,0,-
"Prof. Dr.",FEMALE,ADVANCED,0,-
"سيد",MALE,COMPLEX,0,-
"دكتور",MALE,COMPLEX,0,-
"بروفيسور",MALE,COMPLEX,0,-
"מר",MALE,COMPLEX,0,-
"עו"ד",MALE,COMPLEX,0,-
"'פרופ",MALE,COMPLEX,0,-
"ד"ר",MALE,COMPLEX,0,-
"ბ-ნი",MALE,COMPLEX,0,-
"ბატონი",MALE,COMPLEX,0,-
"سيدة",FEMALE,COMPLEX,0,-
"آنسة",FEMALE,COMPLEX,0,-
"دكتور",FEMALE,COMPLEX,0,-
"بروفيسور",FEMALE,COMPLEX,0,-
"גברת",FEMALE,COMPLEX,0,-
"עו"ד",FEMALE,COMPLEX,0,-
"'פרופ",FEMALE,COMPLEX,0,-
"ד"ר",FEMALE,COMPLEX,0,-
"ქ-ნი",FEMALE,COMPLEX,0,-
"ქალბატონი",FEMALE,COMPLEX,0,-