NAME,COMPLEXITY,VERSION,REMOVED
Jr,BASIC,0,-
Sr,BASIC,0,-
I,BASIC,0,-
II,BASIC,0,-
III,BASIC,0,-
IV,BASIC,0,-
V,BASIC,0,-
MD,BASIC,0,-
DDS,BASIC,0,-
PhD,BASIC,0,-
DVM,BASIC,0,-
Jr.,ADVANCED,0,-
Sr.,ADVANCED,0,-
씨,COMPLEX,0,-
님,COMPLEX,0,-