ARCH,VERSION,REMOVED
arm,0,-
armeb,0,-
aarch64,0,-
aarch64_be,0,-
aarch64_32,0,-
arc,0,-
avr,0,-
bpfel,0,-
bpfeb,0,-
csky,0,-
dxil,0,-
hexagon,0,-
loongarch32,0,-
loongarch64,0,-
m68k,0,-
mips,0,-
mipsel,0,-
mips64,0,-
mips64el,0,-
msp430,0,-
powerpc,0,-
powerpcle,0,-
powerpc64,0,-
powerpc64le,0,-
r600,0,-
amdgcn,0,-
riscv32,0,-
riscv64,0,-
sparc,0,-
sparc64,0,-
sparcel,0,-
s390x,0,-
tce,0,-
tcele,0,-
thumb,0,-
thumbeb,0,-
x86,0,-
x86_64,0,-
xcore,0,-
xtensa,0,-
nvptx,0,-
nvptx64,0,-
le32,0,-
le64,0,-
amdil,0,-
amdil64,0,-
hsail,0,-
hsail64,0,-
spir,0,-
spir64,0,-
spirv32,0,-
spirv64,0,-
kalimba,0,-
shave,0,-
lanai,0,-
wasm32,0,-
wasm64,0,-
renderscript32,0,-
renderscript64,0,-
ve,0,-
spu_2,0,-