MIME,EXTENSION,VERSION,REMOVED
application/epub+zip,epub,0,-
application/gzip,gz,0,-
application/java-archive,jar,0,-
application/java-archive,war,0,-
application/java-archive,ear,0,-
application/json,json,0,-
application/json,map,0,-
application/ld+json,jsonld,0,-
application/msword,doc,0,-
application/msword,dot,0,-
application/octet-stream,bin,0,-
application/octet-stream,dms,0,-
application/octet-stream,lrf,0,-
application/octet-stream,mar,0,-
application/octet-stream,so,0,-
application/octet-stream,dist,0,-
application/octet-stream,distz,0,-
application/octet-stream,pkg,0,-
application/octet-stream,bpk,0,-
application/octet-stream,dump,0,-
application/octet-stream,elc,0,-
application/octet-stream,deploy,0,-
application/octet-stream,exe,0,-
application/octet-stream,dll,0,-
application/octet-stream,deb,0,-
application/octet-stream,dmg,0,-
application/octet-stream,iso,0,-
application/octet-stream,img,0,-
application/octet-stream,msi,0,-
application/octet-stream,msp,0,-
application/octet-stream,msm,0,-
application/octet-stream,buffer,0,-
application/ogg,ogx,0,-
application/pdf,pdf,0,-
application/rtf,rtf,0,-
application/vnd.amazon.ebook,azw,0,-
application/vnd.apple.installer+xml,mpkg,0,-
application/vnd.mozilla.xul+xml,xul,0,-
application/vnd.ms-excel,xls,0,-
application/vnd.ms-excel,xlm,0,-
application/vnd.ms-excel,xla,0,-
application/vnd.ms-excel,xlc,0,-
application/vnd.ms-excel,xlt,0,-
application/vnd.ms-excel,xlw,0,-
application/vnd.ms-fontobject,eot,0,-
application/vnd.ms-powerpoint,ppt,0,-
application/vnd.ms-powerpoint,pps,0,-
application/vnd.ms-powerpoint,pot,0,-
application/vnd.oasis.opendocument.presentation,odp,0,-
application/vnd.oasis.opendocument.spreadsheet,ods,0,-
application/vnd.oasis.opendocument.text,odt,0,-
application/vnd.openxmlformats-officedocument.presentationml.presentation,pptx,0,-
application/vnd.openxmlformats-officedocument.spreadsheetml.sheet,xlsx,0,-
application/vnd.openxmlformats-officedocument.wordprocessingml.document,docx,0,-
application/vnd.rar,rar,0,-
application/vnd.visio,vsd,0,-
application/vnd.visio,vst,0,-
application/vnd.visio,vss,0,-
application/vnd.visio,vsw,0,-
application/x-7z-compressed,7z,0,-
application/x-abiword,abw,0,-
application/x-bzip,bz,0,-
application/x-bzip2,bz2,0,-
application/x-bzip2,boz,0,-
application/x-csh,csh,0,-
application/x-freearc,arc,0,-
application/x-httpd-php,php,0,-
application/x-sh,sh,0,-
application/x-tar,tar,0,-
application/xhtml+xml,xhtml,0,-
application/xhtml+xml,xht,0,-
application/xml,xml,0,-
application/xml,xsl,0,-
application/xml,xsd,0,-
application/xml,rng,0,-
application/zip,zip,0,-
audio/3gpp,3gpp,0,-
audio/3gpp2,3g2,0,-
audio/aac,aac,0,-
audio/midi,mid,0,-
audio/midi,midi,0,-
audio/midi,kar,0,-
audio/midi,rmi,0,-
audio/mpeg,mpga,0,-
audio/mpeg,mp2,0,-
audio/mpeg,mp2a,0,-
audio/mpeg,mp3,0,-
audio/mpeg,m2a,0,-
audio/mpeg,m3a,0,-
audio/ogg,oga,0,-
audio/ogg,ogg,0,-
audio/ogg,spx,0,-
audio/ogg,opus,0,-
audio/opus,opus,0,-
audio/wav,wav,0,-
audio/webm,weba,0,-
font/otf,otf,0,-
font/ttf,ttf,0,-
font/woff,woff,0,-
font/woff2,woff2,0,-
image/avif,avif,0,-
image/bmp,bmp,0,-
image/gif,gif,0,-
image/jpeg,jpeg,0,-
image/jpeg,jpg,0,-
image/jpeg,jpe,0,-
image/png,png,0,-
image/svg+xml,svg,0,-
image/svg+xml,svgz,0,-
image/tiff,tif,0,-
image/tiff,tiff,0,-
image/vnd.microsoft.icon,ico,0,-
image/webp,webp,0,-
text/calendar,ics,0,-
text/calendar,ifb,0,-
text/css,css,0,-
text/csv,csv,0,-
text/html,html,0,-
text/html,htm,0,-
text/html,shtml,0,-
text/javascript,js,0,-
text/javascript,mjs,0,-
text/plain,txt,0,-
text/plain,text,0,-
text/plain,conf,0,-
text/plain,def,0,-
text/plain,list,0,-
text/plain,log,0,-
text/plain,in,0,-
text/plain,ini,0,-
video/3gpp,3gp,0,-
video/3gpp,3gpp,0,-
video/3gpp2,3g2,0,-
video/mp2t,ts,0,-
video/mp4,mp4,0,-
video/mp4,mp4v,0,-
video/mp4,mpg4,0,-
video/mpeg,mpeg,0,-
video/mpeg,mpg,0,-
video/mpeg,mpe,0,-
video/mpeg,m1v,0,-
video/mpeg,m2v,0,-
video/ogg,ogv,0,-
video/webm,webm,0,-
video/x-msvideo,avi,0,-